sent_id	raw_text
25001	Many a quarrel comes about through a misunderstanding.
25002	She sobbed heavily.
25003	That was incredible, wasn't it?
25004	The rope broke under the strain.
25005	I love pizza.
25006	Mr Joel is now on duty.
25007	The wounded were transported with an ambulance.
25008	He asked me whether I like math.
25009	Mary wrapped herself in a towel.
25010	He looked like a doctor.
25011	A cold bath refreshed him.
25012	That cut looks infected.
25013	Liisa was sick of the noise.
25014	He ran away from home.
25015	My little sister looks like my mum.
25016	What city did Duke Ellington live in?
25017	The bear ate an apple.
