sent_id	raw_text
25035	The baby is sleeping in the cradle.
25036	The Mississippi River flows into the Gulf of Mexico.
25037	Tom has dyed his hair black.
25038	He's a very capable business man.
25039	"What group sang the song ""Happy Together""?"
25040	She roasted the turkey.
25041	Tom suspected that his father was dyslexic.
25042	I am acquainted with Mr Smith.
25043	Which suitcases are Tom's?
25044	She offered me a beer.
25045	I am from Ecuador.
25046	I was talking to him.
25047	I showered before breakfast.
25048	The park is located in the center of the city.
25049	Tom was very jealous.
25050	I am boiling water.
25051	He told me an interesting story.
