# ::id 25073
# ::text Germany was allied with Italy in World War II.
(a /ally-01
    :ARG1 (c1 / country :name (n1 / name :op1 "Germany"))
    :ARG2 (c2 / country :name (n2 / name :op1 "Italy"))
    :time (e /event :name (n3 / name :op1 "World" :op2 "War" :op3 "II")))