sent_id,raw_text
25035,The baby is sleeping in the cradle.
25036,The Mississippi River flows into the Gulf of Mexico.
25037,Tom has dyed his hair black.
25038,He's a very capable business man.
25039,"What group sang the song ""Happy Together""?"
25040,She roasted the turkey.
25041,Tom suspected that his father was dyslexic.
25042,I am acquainted with Mr Smith.
25043,Which suitcases are Tom's?
25044,She offered me a beer.
25045,I am from Ecuador.
25046,I was talking to him.
25047,I showered before breakfast.
25048,The park is located in the center of the city.
25049,Tom was very jealous.
25050,I am boiling water.
25051,He told me an interesting story.
25069,Mario bought a microscope.
25070,I was abducted by extraterrestrials.
25071,The horse is not white.
25072,How many people died?
25073,Germany was allied with Italy in World War II.
25074,She planted some pansies in the flower bed.
25075,Illinois borders on Missouri.
25076,Some kids had balloons.
25077,I must have my bicycle repaired.
25078,She's dieting.
25079,I itch everywhere.
25080,The police accused him of murder.
25081,Are you helping Miss Hansson?
25082,http://www.ispaworld.org/canada/rules1.html
25083,The house caved in.
25084,'What is that?' asked Tony.
25085,The line is engaged.
25086,This bridge was built two years ago.
25087,Tom kicked Mary.
25088,I am learning Chinese.
25089,Vladislav Listyev was murdered in Moscow.
25090,Tom is pissed.
25091,This novel bores me.
25092,He's cleaning out his closet.
25093,A number of tourists were injured in the accident.
25094,He crawled out of bed.
25095,How many carjackings took place in Los Angeles in 1991?
25096,I shouldn't have yelled at Tom.
25097,A dollar is equal to a hundred cents.
25098,I gave the books to this student.
25099,Tom put a bunch of letters on Mary's desk.
25100,I'll return at 6:30.
25101,I don't speak Irish.
25102,Did you hurt yourself?
