# ::id 25003
# ::text That was incredible, wasn't it?
 (t /thing
    :ARG1-of (b / believe-01
                          :ARG1-of (p /possible-01 :polarity -))
    :domain (th / that)
    :ARG1-of (r / request-confirmation-91))