#::id 25031
#::text I'm always bored with his boastful talk.
(b / bore-02
	:ARG0 (t / thing
	    :ARG1-of (t2 / talk-01
	        :ARG0 (h / he)
	        :mod (b2 / boastful)
	    )
	)
	:ARG1 (i / i)
 	:manner (a / always)
)