#::id 25087
#::text Tom kicked Mary.
# DONE: Missing sense number for kick
(k / kick-01
	:ARG0 (p1 /person
		:name (n / name :op1 "Tom")
	)
        :ARG1 (p2 /person
		:name (n2 / name :op1 "Mary")
	)
)